Applied_Stats_Project
…
meh, that is still not great. One more time?

percent <- function(x, digits = 2, format = "f", ...) {      # Create user-defined function
  paste0(formatC(x * 100, format = format, digits = digits, ...), "%")
} 
data %>%
  group_by(Sport) %>%
  summarize(Frequency = length(Sport),RelativeFrequency = percent(length(Sport)/271116))

## `summarise()` ungrouping output (override with `.groups` argument)

## # A tibble: 66 x 3
##    Sport            Frequency RelativeFrequency
##    <chr>                <int> <chr>            
##  1 Aeronautics              1 0.00%            
##  2 Alpine Skiing         8829 3.26%            
##  3 Alpinism                25 0.01%            
##  4 Archery               2334 0.86%            
##  5 Art Competitions      3578 1.32%            
##  6 Athletics            38624 14.25%           
##  7 Badminton             1457 0.54%            
##  8 Baseball               894 0.33%            
##  9 Basketball            4536 1.67%            
## 10 Basque Pelota            2 0.00%            
## #  with 56 more rows
…
Yes, less medals all the way around in the most recent year.

I guess I should do nationality counts and look at the number of medals won too!

data %>%
  group_by(Medal,Team,Sex) %>%
  summarize(Medals = length(Medal))

## `summarise()` regrouping output by 'Medal', 'Team' (override with `.groups` argument)

## # A tibble: 2,353 x 4
## # Groups:   Medal, Team [1,715]
##    Medal  Team                  Sex   Medals
##    <chr>  <chr>                 <chr>  <int>
##  1 Bronze A North American Team M          4
##  2 Bronze Afghanistan           M          2
##  3 Bronze Algeria               F          1
##  4 Bronze Algeria               M          7
##  5 Bronze Ali-Baba II           M          5
##  6 Bronze Amstel Amsterdam      M          4
##  7 Bronze Antwerpia V           M          5
##  8 Bronze Aphrodite             M          3
##  9 Bronze Argentina             F         37
## 10 Bronze Argentina             M         54
## #  with 2,343 more rows

Way too much data there to synthesize!

Lets look at age and Team.

data %>%
  group_by(Team) %>%
  summarize(AveargeAge = mean(Age, na.rm = TRUE))

## `summarise()` ungrouping output (override with `.groups` argument)

## # A tibble: 1,184 x 2
##    Team                  AveargeAge
##    <chr>                      <dbl>
##  1 30. Februar                 33.5
##  2 A North American Team       41.3
##  3 Acipactli                   47.3
##  4 Acturus                     27  
##  5 Afghanistan                 23.5
##  6 Akatonbo                    40.3
##  7 Alain IV                    48  
##  8 Albania                     25.3
##  9 Alcaid                      30  
## 10 Alcyon-6                   NaN  
## #  with 1,174 more rows
…
Seriously who are all these ancient olympians?

outliers <- boxplot.stats(data$Age)$out #finds the outliers
oldies <- data[which(data$Age %in% c(outliers)),] #grabs all the data from the outliers and renames it

oldies %>%
  group_by(Sport) %>%
  summarize(AverageAge = mean(Age), MaxAge = max(Age), MinAge = min(Age))

## `summarise()` ungrouping output (override with `.groups` argument)

## # A tibble: 58 x 4
##    Sport            AverageAge MaxAge MinAge
##    <chr>                 <dbl>  <int>  <int>
##  1 Alpine Skiing          42.3     55     39
##  2 Alpinism               46.8     57     39
##  3 Archery                46.3     71     39
##  4 Art Competitions       52.1     97     39
##  5 Athletics              41.0     52     39
##  6 Badminton              42       44     40
##  7 Baseball               40.4     44     39
##  8 Basketball             39.2     40     39
##  9 Beach Volleyball       39.5     41     39
## 10 Biathlon               39.9     45     39
## #  with 48 more rows
…
