Non-Parametric
…
So the median ages are also different! I reject the null hypothesis, there is evidence to suggest that the median age of male and female olympians is different.

Wilcoxson Signed-Ranks Test for Matched Pairs

I doubt many of you will be able to do this test with the data you have but figured I should give it a go! I am going to examine the number of medals awarded each year and ask are men being awarded more medals than women. First Ill need to create this data.

data %>%
  group_by(Year,Sex)%>%
  filter(!is.na(Medal))%>%
  count(Medal %in% c("Bronze","Silver","Gold"), name = "Medals")%>%
  spread(Sex,Medals)%>%
  mutate(diff = M-F)

## # A tibble: 35 x 5
## # Groups:   Year [35]
##     Year `Medal %in% c("Bronze", "Silver", "Gold")`     F     M  diff
##    <int> <lgl>                                      <int> <int> <int>
##  1  1896 TRUE                                          NA   143    NA
##  2  1900 TRUE                                          13   591   578
##  3  1904 TRUE                                          10   476   466
##  4  1906 TRUE                                           6   452   446
##  5  1908 TRUE                                          16   815   799
##  6  1912 TRUE                                          30   911   881
##  7  1920 TRUE                                          44  1264  1220
##  8  1924 TRUE                                          52   910   858
##  9  1928 TRUE                                         103   720   617
## 10  1932 TRUE                                          68   671   603
## #  with 25 more rows
…
